{
    "name": "ManageUsers",
    "alias": "manageusers",
    "description": "",
    "keywords": [],
    "active": 1,
    "order": 0,
    "providers": [
        "Modules\\ManageUsers\\Providers\\ManageUsersServiceProvider"
    ],
    "aliases": {},
    "files": [
        "start.php"
    ],
    "requires": []
}
